popular • populaR
…
The .Renviron file is a key-value pair, so just add a line that says

WPP_API_KEY=YOUR_KEY_HERE

Don’t include any spaces before or after the = sign.

Restart your R session. You can test if the key is working by typing get_wpp_api_key(). If this function doesn’t return an error, then you are good to go.

Querying data from the WPP API

The WPP API operates based on indicators and locations. These are typically numeric identifiers. Indicators can be thought of as datasets. There is a wide range of datasets reported by the API, and you can see the list using

get_base_levels("Indicators")
#> # A tibble: 64 × 33
#>       id name         shortName description displayName dimAge dimSex dimVariant
#>    <int> <chr>        <chr>     <chr>       <chr>       <lgl>  <lgl>  <lgl>     
#>  1     1 Contracepti… CPAnyP    Percentage… Any         FALSE  FALSE  TRUE      
#>  2     2 Contracepti… CPModP    Percentage… CP Modern   FALSE  FALSE  TRUE      
#>  3     3 Contracepti… CPTrad    Percentage… CP Traditi… FALSE  FALSE  TRUE      
#>  4     4 Unmet need … UNMP      Percentage… Unmet need  FALSE  FALSE  TRUE      
#>  5     5 Unmet need … UNMModP   Percentage… Unmet need… FALSE  FALSE  TRUE      
#>  6     6 Total deman… DEMTot    Percentage… Total dema… FALSE  FALSE  TRUE      
#>  7     7 Demand for … DEMAny    Percentage… Demand sat… FALSE  FALSE  TRUE      
#>  8     8 Demand for … DEMMod    Percentage… Demand sat… FALSE  FALSE  TRUE      
#>  9     9 Contracepti… CPAnyN    Number of … Contracept… FALSE  FALSE  TRUE      
#> 10    10 Contracepti… CPModN    Number of … Users of m… FALSE  FALSE  TRUE      
#> # ℹ 54 more rows
#> # ℹ 25 more variables: dimCategory <lgl>, defaultAgeId <int>,
#> #   defaultSexId <int>, defaultVariantId <int>, defaultCategoryId <int>,
#> #   variableType <chr>, valueType <chr>, unitScaling <dbl>, precision <int>,
#> #   isThousandSeparatorSpace <lgl>, formatString <chr>, unitShortLabel <chr>,
#> #   unitLongLabel <chr>, nClassesDefault <int>, downloadFileName <chr>,
#> #   sourceId <int>, sourceName <chr>, sourceYear <int>, …
…
australia <- get_id("Australia", type = "locations", search = FALSE)

australia
#> # A tibble: 1 × 6
#>      id name      iso3  iso2  longitude latitude
#>   <int> <chr>     <chr> <chr>     <dbl>    <dbl>
#> 1    36 Australia AUS   AU         134.    -25.3

Finally, I can collect the indicator data from the API using get_indicator_data:

aus_data <- get_indicator_data(indicator_id = age_sex_id$id, location_id = australia$id, start_year = 2020, end_year = 2024)

aus_data

#> # A tibble: 252 × 7
#>    locationId location   year sexId      ageStart ageEnd population
#>         <dbl> <chr>     <dbl> <fct>         <dbl>  <dbl>      <dbl>
#>  1         36 Australia  2020 Male              0      4    793764
#>  2         36 Australia  2020 Female            0      4    749506
#>  3         36 Australia  2020 Both sexes        0      4   1543270
#>  4         36 Australia  2020 Male              5      9    836376.
#>  5         36 Australia  2020 Female            5      9    791073
#>  6         36 Australia  2020 Both sexes        5      9   1627450.
#>  7         36 Australia  2020 Male             10     14    826988
#>  8         36 Australia  2020 Female           10     14    780265
#>  9         36 Australia  2020 Both sexes       10     14   1607253
#> 10         36 Australia  2020 Male             15     19    770618.
#> # ℹ 242 more rows
…
